control/simulation/qsim/control.msim.vcd
$comment
	File created using the following command:
		vcd file control.msim.vcd -direction
$end
$date
	Wed Apr 10 22:49:43 2019
$end
$version
	ModelSim Version 10.1d
$end
$timescale
	1ps
$end
$scope module control_vlg_vec_tst $end
$var reg 6 ! opcode [5:0] $end
$var wire 1 " alu_op [1] $end
$var wire 1 # alu_op [0] $end
$var wire 1 $ alu_src $end
$var wire 1 % branch $end
$var wire 1 & jump $end
$var wire 1 ' mem_read $end
$var wire 1 ( mem_to_reg $end
$var wire 1 ) mem_write $end
$var wire 1 * reg_dest $end
$var wire 1 + reg_write $end
$var wire 1 , sampler $end
$scope module i1 $end
$var wire 1 - gnd $end
$var wire 1 . vcc $end
$var wire 1 / unknown $end
$var tri1 1 0 devclrn $end
$var tri1 1 1 devpor $end
$var tri1 1 2 devoe $end
$var wire 1 3 reg_dest~output_o $end
$var wire 1 4 jump~output_o $end
$var wire 1 5 branch~output_o $end
$var wire 1 6 mem_read~output_o $end
$var wire 1 7 mem_to_reg~output_o $end
$var wire 1 8 mem_write~output_o $end
$var wire 1 9 alu_src~output_o $end
$var wire 1 : reg_write~output_o $end
$var wire 1 ; alu_op[0]~output_o $end
$var wire 1 < alu_op[1]~output_o $end
$var wire 1 = opcode[4]~input_o $end
$var wire 1 > opcode[5]~input_o $end
$var wire 1 ? opcode[1]~input_o $end
$var wire 1 @ opcode[3]~input_o $end
$var wire 1 A Equal0~0_combout $end
$var wire 1 B opcode[0]~input_o $end
$var wire 1 C opcode[2]~input_o $end
$var wire 1 D Equal0~1_combout $end
$var wire 1 E Equal4~0_combout $end
$var wire 1 F jump~0_combout $end
$var wire 1 G Equal2~0_combout $end
$var wire 1 H Equal5~0_combout $end
$var wire 1 I Equal5~1_combout $end
$var wire 1 J Equal6~0_combout $end
$var wire 1 K alu_src~0_combout $end
$var wire 1 L Equal4~1_combout $end
$var wire 1 M alu_src~1_combout $end
$var wire 1 N alu_src~2_combout $end
$var wire 1 O reg_write~0_combout $end
$var wire 1 P alu_op~0_combout $end
$upscope $end
$upscope $end
$enddefinitions $end
#0
$dumpvars
b0 !
0#
1"
0$
0%
0&
0'
0(
0)
1*
1+
x,
0-
1.
x/
10
11
12
13
04
05
06
07
08
09
1:
0;
1<
0=
0>
0?
0@
1A
0B
0C
1D
1E
0F
0G
0H
0I
0J
0K
0L
1M
0N
1O
1P
$end
#50000
b1 !
1B
0,
1K
0E
0P
0O
0D
0<
0:
03
0"
0+
0*
#100000
b11 !
b10 !
0B
1?
1,
0K
1E
0A
1P
1O
1D
1K
1<
1:
13
1"
1+
1*
1F
0P
0O
0D
14
0<
0:
03
1&
0"
0+
0*
#150000
b11 !
1B
0,
1H
0E
0F
04
0&
#200000
b111 !
b101 !
b100 !
0B
0?
1C
1,
0H
1A
0K
1G
1;
15
1#
1%
#250000
b101 !
1B
0,
1P
1<
1"
#300000
b111 !
b110 !
0B
1?
1,
0A
0P
1K
0<
0"
0G
0;
05
0#
0%
#350000
b111 !
1B
0,
#400000
b1111 !
b1011 !
b1001 !
b1000 !
0B
0?
0C
1@
1,
1E
1L
0M
1O
1N
1:
19
1+
1$
#450000
b1001 !
1B
0,
0E
0L
1M
0O
0N
0:
09
0+
0$
#500000
b1011 !
b1010 !
0B
1?
1,
1E
#550000
b1011 !
1B
0,
1H
0E
#600000
b1111 !
b1101 !
b1100 !
0B
0?
1C
1,
0H
#650000
b1101 !
1B
0,
#700000
b1111 !
b1110 !
0B
1?
1,
#750000
b1111 !
1B
0,
#800000
b11111 !
b10111 !
b10011 !
b10001 !
b10000 !
0B
0?
0C
0@
1=
1,
#850000
b10001 !
1B
0,
#900000
b10011 !
b10010 !
0B
1?
1,
#950000
b10011 !
1B
0,
